Planejamento e Análise de Experimentos I
…
Plantmax
16,0
14,2
18,1
16,4

Realize a análise de variância com comparações múltiplas de Tukey, considerando um nível de significância de \(5\%\).

Arquivo com os dados: dados_1.xlsx

# Lendo os dados
dados_1 <- read_xlsx("dados_1.xlsx")
dados_1

# A tibble: 24 × 3
   repeticao substratos altura
       <dbl> <chr>       <dbl>
 1         1 CaC+EB       18.2
 2         2 CaC+EB       16.4
 3         3 CaC+EB       20.5
 4         4 CaC+EB       19.4
 5         1 CaC+EA       12.8
 6         2 CaC+EA       14.5
 7         3 CaC+EA       10.3
 8         4 CaC+EA       11.5
 9         1 HM           21.8
10         2 HM           19.3
# ℹ 14 more rows
…
\(VI\)
2,65
1,66
1,12
1,00

Realize a análise de variância com teste Tukey para comparações múltiplas, ao nível de \(5\%\) de probabilidade.

Arquivo com os dados: dados_2.xlsx

# Lendo os dados
dados_2 <- read_xlsx("dados_2.xlsx")
dados_2

# A tibble: 24 × 3
   bloco epoca produtividade
   <dbl> <chr>         <dbl>
 1     1 A              2.89
 2     1 B              1.58
 3     1 C              2.29
 4     1 D              2.56
 5     2 A              2.88
 6     2 B              1.28
 7     2 C              2.98
 8     2 D              2   
 9     3 A              1.88
10     3 B              1.22
# ℹ 14 more rows
…
5
E=22
A=30
B=20
C=29
D=31

Arquivo com os dados: dados_3.xlsx

# Lendo os dados
dados_3 <- read_xlsx("dados_3.xlsx")
dados_3

# A tibble: 25 × 4
    lote operador formulacoes velocidade
   <dbl>    <dbl> <chr>            <dbl>
 1     1        1 A                   24
 2     2        1 B                   17
 3     3        1 C                   18
 4     4        1 D                   26
 5     5        1 E                   22
 6     1        2 B                   20
 7     2        2 C                   24
 8     3        2 D                   38
 9     4        2 E                   31
10     5        2 A                   30
# ℹ 15 more rows
…
Experimento

Arquivo com os dados: dados_4.xlsx

# Lendo os dados
# dados simulados
dados_4 <- read_xlsx("dados_4.xlsx")
dados_4

# A tibble: 24 × 3
   repeticao substratos altura
       <dbl> <chr>       <dbl>
 1         1 CaC+EB       18.2
 2         2 CaC+EB       16.4
 3         3 CaC+EB       20.5
 4         4 CaC+EB       19.4
 5         1 CaC+EA       12.8
 6         2 CaC+EA       14.5
 7         3 CaC+EA       10.3
 8         4 CaC+EA       11.5
 9         1 HM           11.8
10         2 HM           19.3
# ℹ 14 more rows
…
